node,left_child,right_child,blur,sharp,pred,threshold,variable
1,2,3,24000,24000,B,261.0131,contrast_1_4
2,4,5,22784,964,B,217.8969,contrast_1_4
3,6,7,1216,23036,C,319.0778,contrast_1_4
4,,,21228,350,B,,
5,8,9,1556,614,B,176.6469,tenengrad
6,10,11,787,2001,C,7.212721,noise
7,12,13,429,21035,C,7.7411518E-02,grad_mag
8,,,1138,292,B,,
9,14,15,418,322,B,3.848021,noise
10,16,17,708,1984,C,6.5439917E-02,grad_mag
11,,,79,17,B,,
12,18,19,226,1085,C,9.798921,noise
13,,,203,19950,C,,
14,,,302,98,B,,
15,20,21,116,224,C,5.8263317E-02,grad_mag
16,22,23,179,171,B,4.595200,noise
17,24,25,529,1813,C,3.971375,noise
18,,,159,1084,C,,
19,,,67,1,B,,
20,,,24,4,B,,
21,,,92,220,C,,
22,,,44,98,C,,
23,,,135,73,B,,
24,26,27,132,132,B,3.042162,noise
25,28,29,397,1681,C,7.9133801E-02,grad_mag
26,,,29,5,B,,
27,,,103,127,C,,
28,30,31,296,796,C,6.382513,noise
29,,,101,885,C,,
30,,,234,752,C,,
31,,,62,44,B,,
